This is BibTeX, Version 0.99d (TeX Live 2020/NixOS.org)
Capacity: max_strings=200000, hash_size=200000, hash_prime=170003
The top-level auxiliary file: thesis.aux
The style file: alpha.bst
Database file #1: thesis.bib
Warning--to sort, need author or key in oeis-motzkin
Warning--empty journal in gelfand-tsetlin
You've used 12 entries,
            2543 wiz_defined-function locations,
            616 strings with 5941 characters,
and the built_in function-call counts, 3669 in all, are:
= -- 346
> -- 173
< -- 7
+ -- 57
- -- 55
* -- 222
:= -- 639
add.period$ -- 34
call.type$ -- 12
change.case$ -- 64
chr.to.int$ -- 12
cite$ -- 15
duplicate$ -- 158
empty$ -- 273
format.name$ -- 71
if$ -- 732
int.to.chr$ -- 1
int.to.str$ -- 0
missing$ -- 12
newline$ -- 61
num.names$ -- 33
pop$ -- 78
preamble$ -- 1
purify$ -- 80
quote$ -- 0
skip$ -- 135
stack$ -- 0
substring$ -- 102
swap$ -- 11
text.length$ -- 7
text.prefix$ -- 5
top$ -- 0
type$ -- 80
warning$ -- 2
while$ -- 29
width$ -- 16
write$ -- 146
(There were 2 warnings)
